@startuml 
    Class "User" as person{
   
        - Int id
        - String name, fname, handle
        - Int age
        - String identity
        - String email
        - String bio
        - Double lon, lat
        - Float perimeter
        - Bool desert
        - Float tauxCuisson 
        - List<CookType> favCookType
        - List<Diet> diets
        - List<User> likedUsers, matchedUsers, dislikedUsers, matchingCandidates

        + void addObjectToList(List<Object> list, User o)
        + void removeObjectFromList(List<Object> list, Object o)
        + List<User> itsCookingTime(List<User> users)
        + void writeMessage(Message m, Discussion d)
        + void leaveDiscussion(Discussion d)
        
    }

    Class "Discussion" as discuss{
        - []Message messages
        - Person[] participants

        + Message updateMessages(Message m)
        + void removeMsg(Message m)
    }

    Class "Discussion" as discuss{
        - []Message messages
        - Person[] participants
    }

    discuss "1" *-- "0..*" messaging
    messaging "1" -- "1" person
    person "2" *-- "0..*" discuss
@enduml